{
  "type": "postgres",
  "host": "localhost",
  "port": "5442",
  "username": "airplane",
  "password": "airplane",
  "database": "airplane",
  "migrations": ["dist/infrastructure/secondary/migrations/*.js"]
}
